Time,Extension,Load
(sec),(mm),(N)
0.00000,0.87160,-6.59059
0.10000,0.87230,-6.59059
0.20000,0.87310,-6.57717
0.30000,0.87390,-6.57717
0.40000,0.87480,-6.57717
0.50000,0.87560,-6.56375
0.60000,0.87640,-6.51006
0.70000,0.87730,-6.32214
0.80000,0.87810,-6.17449
0.90000,0.87890,-6.04026
1.00000,0.87980,-5.86576
1.10000,0.88060,-5.71811
1.20000,0.88140,-5.55704
1.30000,0.88230,-5.39596
1.40000,0.88310,-5.23489
1.50000,0.88390,-5.07382
1.60000,0.88480,-4.91274
1.70000,0.88560,-4.76509
1.80000,0.88640,-4.60402
1.90000,0.88730,-4.45637
2.00000,0.88810,-4.30872
2.10000,0.88890,-4.13422
2.20000,0.88980,-3.97315
2.30000,0.89060,-3.79865
2.40000,0.89140,-3.66443
2.50000,0.89230,-3.51677
2.60000,0.89310,-3.34228
2.70000,0.89390,-3.16778
2.80000,0.89480,-3.02013
2.90000,0.89560,-2.83221
3.00000,0.89640,-2.65772
3.10000,0.89730,-2.46980
3.20000,0.89810,-2.32215
3.30000,0.89890,-2.14765
3.40000,0.89980,-2.00000
3.50000,0.90060,-1.83893
3.60000,0.90140,-1.70470
3.70000,0.90230,-1.51678
3.80000,0.90310,-1.34228
3.90000,0.90390,-1.18121
4.00000,0.90480,-1.04698
4.10000,0.90560,-0.87249
4.20000,0.90640,-0.67114
4.30000,0.90730,-0.49665
4.40000,0.90810,-0.33557
4.50000,0.90890,-0.14766
4.60000,0.90980,0.05369
4.70000,0.91060,0.20134
4.80000,0.91140,0.36241
4.90000,0.91230,0.52348
5.00000,0.91310,0.67113
5.10000,0.91390,0.83221
5.20000,0.91480,0.99328
5.30000,0.91560,1.15435
5.40000,0.91640,1.30201
5.50000,0.91730,1.46308
5.60000,0.91810,1.58388
5.70000,0.91890,1.75838
5.80000,0.91980,1.93288
5.90000,0.92060,2.10737
6.00000,0.92140,2.26845
6.10000,0.92230,2.45636
6.20000,0.92310,2.63086
6.30000,0.92390,2.80536
6.40000,0.92480,2.95301
6.50000,0.92560,3.14093
6.60000,0.92640,3.28858
6.70000,0.92730,3.44965
6.80000,0.92810,3.58388
6.90000,0.92890,3.74495
7.00000,0.92980,3.85233
7.10000,0.93060,3.85233
7.20000,0.93140,4.06710
7.30000,0.93230,4.18790
7.40000,0.93310,4.44294
7.50000,0.93390,4.57716
7.60000,0.93480,4.77851
7.70000,0.93560,4.93958
7.80000,0.93640,5.14092
7.90000,0.93730,5.27515
8.00000,0.93810,5.46307
8.10000,0.93890,5.62414
8.20000,0.93980,5.79864
8.30000,0.94060,5.97313
8.40000,0.94140,6.10736
8.50000,0.94230,6.28186
8.60000,0.94310,6.45635
8.70000,0.94390,6.61743
8.80000,0.94480,6.76508
8.90000,0.94560,6.93957
9.00000,0.94640,7.12749
9.10000,0.94730,7.28857
9.20000,0.94810,7.46306
9.30000,0.94890,7.65098
9.40000,0.94980,7.85232
9.50000,0.95060,8.02682
9.60000,0.95140,8.20132
9.70000,0.95230,8.38924
9.80000,0.95310,8.56373
9.90000,0.95390,8.71138
10.00000,0.95480,8.87246
10.10000,0.95560,9.04695
10.20000,0.95640,9.23487
10.30000,0.95720,9.38252
10.40000,0.95810,9.54359
10.50000,0.95890,9.73151
10.60000,0.95970,9.91943
10.70000,0.96060,10.08051
10.80000,0.96140,10.25500
10.90000,0.96220,10.45634
11.00000,0.96310,10.63084
11.10000,0.96390,10.77849
11.20000,0.96470,10.95299
11.30000,0.96560,11.12748
11.40000,0.96640,11.30198
11.50000,0.96720,11.46305
11.60000,0.96810,11.62413
11.70000,0.96890,11.79862
11.80000,0.96970,11.95970
11.90000,0.97060,12.10735
12.00000,0.97140,12.26842
12.10000,0.97220,12.46976
12.20000,0.97310,12.64426
12.30000,0.97390,12.80533
12.40000,0.97470,12.99325
12.50000,0.97560,13.18117
12.60000,0.97640,13.38251
12.70000,0.97720,13.55701
12.80000,0.97810,13.73150
12.90000,0.97890,13.90600
13.00000,0.97970,14.08050
13.10000,0.98060,14.21472
13.20000,0.98140,14.38922
13.30000,0.98220,14.56372
13.40000,0.98310,14.73821
13.50000,0.98390,14.89929
13.60000,0.98470,15.06036
13.70000,0.98560,15.26170
13.80000,0.98640,15.42277
13.90000,0.98720,15.57042
14.00000,0.98810,15.75834
14.10000,0.98890,15.95969
14.20000,0.98970,16.14760
14.30000,0.99060,16.30868
14.40000,0.99140,16.48317
14.50000,0.99220,16.65767
14.60000,0.99310,16.83217
14.70000,0.99390,16.97982
14.80000,0.99470,17.15431
14.90000,0.99560,17.32881
15.00000,0.99640,17.50331
15.10000,0.99720,17.65096
15.20000,0.99810,17.81203
15.30000,0.99890,17.99995
15.40000,0.99970,18.17445
15.50000,1.00060,18.33552
15.60000,1.00140,18.52344
15.70000,1.00220,18.71136
15.80000,1.00310,18.89928
15.90000,1.00390,19.03350
16.00000,1.00470,19.20800
16.10000,1.00560,19.35565
16.20000,1.00640,19.51672
16.30000,1.00720,19.69122
16.40000,1.00810,19.83887
16.50000,1.00890,20.02679
16.60000,1.00970,20.20129
16.70000,1.01060,20.37578
16.80000,1.01140,20.53686
16.90000,1.01220,20.69793
17.00000,1.01310,20.85900
17.10000,1.01390,21.02008
17.20000,1.01470,21.20799
17.30000,1.01560,21.39591
17.40000,1.01640,21.57041
17.50000,1.01720,21.73148
17.60000,1.01810,21.89256
17.70000,1.01890,22.08048
17.80000,1.01970,22.25497
17.90000,1.02060,22.40262
18.00000,1.02140,22.56370
18.10000,1.02220,22.76504
18.20000,1.02310,22.93953
18.30000,1.02390,23.10061
18.40000,1.02470,23.24826
18.50000,1.02560,23.43618
18.60000,1.02640,23.61067
18.70000,1.02720,23.78517
18.80000,1.02810,23.98651
18.90000,1.02890,24.17443
19.00000,1.02970,24.34893
19.10000,1.03060,24.49658
19.20000,1.03140,24.67107
19.30000,1.03220,24.84557
19.40000,1.03310,25.00664
19.50000,1.03390,25.15429
19.60000,1.03470,25.32879
19.70000,1.03560,25.50329
19.80000,1.03640,25.65094
19.90000,1.03720,25.81201
20.00000,1.03810,25.98651
20.10000,1.03890,26.14758
20.20000,1.03970,26.32208
20.30000,1.04060,26.48315
20.40000,1.04140,26.67107
20.50000,1.04220,26.85899
20.60000,1.04310,27.02006
20.70000,1.04390,27.18113
20.80000,1.04470,27.35563
20.90000,1.04560,27.51670
21.00000,1.04640,27.69120
21.10000,1.04720,27.83885
21.20000,1.04810,27.99992
21.30000,1.04890,28.18784
21.40000,1.04970,28.36234
21.50000,1.05060,28.50999
21.60000,1.05140,28.68449
21.70000,1.05220,28.85898
21.80000,1.05310,29.04690
21.90000,1.05390,29.19455
22.00000,1.05470,29.38247
22.10000,1.05560,29.55697
22.20000,1.05640,29.71804
22.30000,1.05720,29.86569
22.40000,1.05810,30.04019
22.50000,1.05890,30.20126
22.60000,1.05970,30.37576
22.70000,1.06060,30.52341
22.80000,1.06140,30.69790
22.90000,1.06220,30.87240
23.00000,1.06310,31.04690
23.10000,1.06390,31.19455
23.20000,1.06470,31.34220
23.30000,1.06560,31.53012
23.40000,1.06640,31.69119
23.50000,1.06720,31.87911
23.60000,1.06810,32.05360
23.70000,1.06890,32.24152
23.80000,1.06970,32.40260
23.90000,1.07060,32.55025
24.00000,1.07140,32.73817
24.10000,1.07220,32.88582
24.20000,1.07310,33.04689
24.30000,1.07390,33.18112
24.40000,1.07470,33.34219
24.50000,1.07560,33.51669
24.60000,1.07640,33.69118
24.70000,1.07720,33.83883
24.80000,1.07810,33.99991
24.90000,1.07890,34.18783
25.00000,1.07970,34.36232
25.10000,1.08060,34.52340
25.20000,1.08140,34.68447
25.30000,1.08220,34.85897
25.40000,1.08310,35.02004
25.50000,1.08390,35.16769
25.60000,1.08470,35.34219
25.70000,1.08560,35.50326
25.80000,1.08640,35.67776
25.90000,1.08720,35.82541
26.00000,1.08810,35.95963
26.10000,1.08890,36.14755
26.20000,1.08970,36.33547
26.30000,1.09060,36.48312
26.40000,1.09140,36.64420
26.50000,1.09220,36.84554
26.60000,1.09310,37.02003
26.70000,1.09390,37.18111
26.80000,1.09470,37.36903
26.90000,1.09560,37.54352
27.00000,1.09640,37.71802
27.10000,1.09720,37.89252
27.20000,1.09810,38.06701
27.30000,1.09890,38.21466
27.40000,1.09970,38.36231
27.50000,1.10060,38.49654
27.60000,1.10140,38.67104
27.70000,1.10220,38.84553
27.80000,1.10310,38.99318
27.90000,1.10390,39.12741
28.00000,1.10470,39.30191
28.10000,1.10560,39.48983
28.20000,1.10640,39.63748
28.30000,1.10720,39.82540
28.40000,1.10810,39.99989
28.50000,1.10890,40.16097
28.60000,1.10970,40.32204
28.70000,1.11060,40.48311
28.80000,1.11140,40.65761
28.90000,1.11220,40.80526
29.00000,1.11310,40.95291
29.10000,1.11390,41.10056
29.20000,1.11470,41.27506
29.30000,1.11560,41.43613
29.40000,1.11640,41.59720
29.50000,1.11720,41.73143
29.60000,1.11810,41.91935
29.70000,1.11890,42.10727
29.80000,1.11970,42.24150
29.90000,1.12060,42.42942
30.00000,1.12140,42.60391
30.10000,1.12220,42.77841
30.20000,1.12310,42.91264
30.30000,1.12390,43.07371
30.40000,1.12470,43.24821
30.50000,1.12560,43.39586
30.60000,1.12640,43.51666
30.70000,1.12720,43.66431
30.80000,1.12810,43.83881
30.90000,1.12890,43.99988
31.00000,1.12970,44.14753
31.10000,1.13060,44.30861
31.20000,1.13140,44.46968
31.30000,1.13220,44.65760
31.40000,1.13310,44.79183
31.50000,1.13390,44.97975
31.60000,1.13470,45.16766
31.70000,1.13560,45.34216
31.80000,1.13640,45.47639
31.90000,1.13720,45.63746
32.00000,1.13810,45.79854
32.10000,1.13890,45.95961
32.20000,1.13970,46.10726
32.30000,1.14060,46.25491
32.40000,1.14140,46.42941
32.50000,1.14220,46.60390
32.60000,1.14310,46.72471
32.70000,1.14390,46.88578
32.80000,1.14470,47.06028
32.90000,1.14560,47.22135
33.00000,1.14640,47.36900
33.10000,1.14720,47.54350
33.20000,1.14810,47.73142
33.30000,1.14890,47.89249
33.40000,1.14970,48.05356
33.50000,1.15060,48.21464
33.60000,1.15140,48.37571
33.70000,1.15220,48.53678
33.80000,1.15310,48.64417
33.90000,1.15390,48.80524
34.00000,1.15470,48.99316
34.10000,1.15560,49.15423
34.20000,1.15640,49.28846
34.30000,1.15720,49.44953
34.40000,1.15810,49.61061
34.50000,1.15890,49.77168
34.60000,1.15970,49.93275
34.70000,1.16060,50.09383
34.80000,1.16140,50.28175
34.90000,1.16220,50.46966
35.00000,1.16310,50.60389
35.10000,1.16390,50.76497
35.20000,1.16470,50.92604
35.30000,1.16560,51.08711
35.40000,1.16640,51.22134
35.50000,1.16720,51.40926
35.60000,1.16810,51.59718
35.70000,1.16890,51.73141
35.80000,1.16970,51.89248
35.90000,1.17060,52.02671
36.00000,1.17140,52.18778
36.10000,1.17220,52.34885
36.20000,1.17310,52.50993
36.30000,1.17390,52.69785
36.40000,1.17470,52.85892
36.50000,1.17560,53.01999
36.60000,1.17640,53.18107
36.70000,1.17720,53.34214
36.80000,1.17810,53.47637
36.90000,1.17890,53.63744
37.00000,1.17970,53.77167
37.10000,1.18060,53.95959
37.20000,1.18140,54.09382
37.30000,1.18220,54.22804
37.40000,1.18310,54.38912
37.50000,1.18390,54.55019
37.60000,1.18470,54.73811
37.70000,1.18560,54.89918
37.80000,1.18640,55.06026
37.90000,1.18720,55.24818
38.00000,1.18810,55.40925
38.10000,1.18890,55.51663
38.20000,1.18970,55.67770
38.30000,1.19060,55.83878
38.40000,1.19140,55.99985
38.50000,1.19220,56.13408
38.60000,1.19310,56.26831
38.70000,1.19390,56.42938
38.80000,1.19470,56.56361
38.90000,1.19560,56.69784
39.00000,1.19640,56.83206
39.10000,1.19720,57.01998
39.20000,1.19810,57.18106
39.30000,1.19890,57.34213
39.40000,1.19970,57.50320
39.50000,1.20060,57.69112
39.60000,1.20140,57.85220
39.70000,1.20220,57.98642
39.80000,1.20310,58.12065
39.90000,1.20390,58.30857
40.00000,1.20470,58.46964
40.10000,1.20560,58.60387
40.20000,1.20640,58.73810
40.30000,1.20720,58.89917
40.40000,1.20810,59.06025
40.50000,1.20890,59.19447
40.60000,1.20970,59.32870
40.70000,1.21060,59.48978
40.80000,1.21140,59.67769
40.90000,1.21220,59.81192
41.00000,1.21310,59.97300
41.10000,1.21390,60.16091
41.20000,1.21470,60.32199
41.30000,1.21560,60.42937
41.40000,1.21640,60.59044
41.50000,1.21720,60.75152
41.60000,1.21810,60.91259
41.70000,1.21890,61.04682
41.80000,1.21970,61.18105
41.90000,1.22060,61.31527
42.00000,1.22140,61.47635
42.10000,1.22220,61.61058
42.20000,1.22310,61.74480
42.30000,1.22390,61.90588
42.40000,1.22470,62.06695
42.50000,1.22560,62.20118
42.60000,1.22640,62.38910
42.70000,1.22720,62.55017
42.80000,1.22810,62.71124
42.90000,1.22890,62.87232
43.00000,1.22970,63.03339
43.10000,1.23060,63.19446
43.20000,1.23140,63.32869
43.30000,1.23220,63.46292
43.40000,1.23310,63.59715
43.50000,1.23390,63.75822
43.60000,1.23470,63.91929
43.70000,1.23560,64.05352
43.80000,1.23640,64.21460
43.90000,1.23720,64.37567
44.00000,1.23810,64.53674
44.10000,1.23890,64.67097
44.20000,1.23970,64.83204
44.30000,1.24060,64.99312
44.40000,1.24140,65.15419
44.50000,1.24220,65.28842
44.60000,1.24310,65.42265
44.70000,1.24390,65.55687
44.80000,1.24470,65.71795
44.90000,1.24560,65.85218
45.00000,1.24640,65.98640
45.10000,1.24720,66.14748
45.20000,1.24810,66.28170
45.30000,1.24890,66.41593
45.40000,1.24970,66.57701
45.50000,1.25060,66.73808
45.60000,1.25140,66.87231
45.70000,1.25220,67.00653
45.80000,1.25310,67.19445
45.90000,1.25390,67.35553
46.00000,1.25470,67.48976
46.10000,1.25560,67.62398
46.20000,1.25640,67.78506
46.30000,1.25720,67.94613
46.40000,1.25810,68.05351
46.50000,1.25890,68.18774
46.60000,1.25970,68.32197
46.70000,1.26060,68.48304
46.80000,1.26140,68.61727
46.90000,1.26220,68.75150
47.00000,1.26310,68.91257
47.10000,1.26390,69.07364
47.20000,1.26470,69.20787
47.30000,1.26560,69.34210
47.40000,1.26640,69.53002
47.50000,1.26720,69.69109
47.60000,1.26810,69.82532
47.70000,1.26890,69.95955
47.80000,1.26970,70.12062
47.90000,1.27060,70.25485
48.00000,1.27140,70.38908
48.10000,1.27220,70.52330
48.20000,1.27310,70.65753
48.30000,1.27390,70.81861
48.40000,1.27470,70.97968
48.50000,1.27560,71.08706
48.60000,1.27640,71.24813
48.70000,1.27720,71.38236
48.80000,1.27810,71.51659
48.90000,1.27890,71.67766
49.00000,1.27970,71.83874
49.10000,1.28060,71.99981
49.20000,1.28140,72.13404
49.30000,1.28220,72.24142
49.40000,1.28310,72.40249
49.50000,1.28390,72.50988
49.60000,1.28470,72.67095
49.70000,1.28560,72.77833
49.80000,1.28640,72.91256
49.90000,1.28720,73.07363
50.00000,1.28810,73.23471
50.10000,1.28890,73.36893
50.20000,1.28970,73.47632
50.30000,1.29060,73.61054
50.40000,1.29140,73.77162
50.50000,1.29220,73.90585
50.60000,1.29310,74.06692
50.70000,1.29390,74.22799
50.80000,1.29470,74.36222
50.90000,1.29560,74.49645
51.00000,1.29640,74.65752
51.10000,1.29720,74.79175
51.20000,1.29810,74.92598
51.30000,1.29890,75.03336
51.40000,1.29970,75.19443
51.50000,1.30060,75.35551
51.60000,1.30140,75.48973
51.70000,1.30220,75.62396
51.80000,1.30310,75.75819
51.90000,1.30390,75.91926
52.00000,1.30470,76.05349
52.10000,1.30560,76.21456
52.20000,1.30640,76.37564
52.30000,1.30720,76.53671
52.40000,1.30810,76.64409
52.50000,1.30890,76.77832
52.60000,1.30970,76.91255
52.70000,1.31060,77.04678
52.80000,1.31140,77.18101
52.90000,1.31220,77.28839
53.00000,1.31310,77.44946
53.10000,1.31390,77.58369
53.20000,1.31470,77.71792
53.30000,1.31560,77.82530
53.40000,1.31640,77.95953
53.50000,1.31720,78.12060
53.60000,1.31810,78.22798
53.70000,1.31890,78.36221
53.80000,1.31970,78.52328
53.90000,1.32060,78.68436
54.00000,1.32140,78.79174
54.10000,1.32220,78.92597
54.20000,1.32310,79.06020
54.30000,1.32390,79.19442
54.40000,1.32470,79.32865
54.50000,1.32560,79.43603
54.60000,1.32640,79.57026
54.70000,1.32720,79.73133
54.80000,1.32810,79.86556
54.90000,1.32890,79.97294
55.00000,1.32970,80.10717
55.10000,1.33060,80.26825
55.20000,1.33140,80.40247
55.30000,1.33220,80.53670
55.40000,1.33310,80.67093
55.50000,1.33390,80.80516
55.60000,1.33470,80.91254
55.70000,1.33560,81.04677
55.80000,1.33640,81.18100
55.90000,1.33720,81.31522
56.00000,1.33810,81.44945
56.10000,1.33890,81.55683
56.20000,1.33970,81.71791
56.30000,1.34060,81.85213
56.40000,1.34140,81.98636
56.50000,1.34220,82.09374
56.60000,1.34310,82.22797
56.70000,1.34390,82.36220
56.80000,1.34470,82.49643
56.90000,1.34560,82.65750
57.00000,1.34640,82.81857
57.10000,1.34720,82.95280
57.20000,1.34810,83.06019
57.30000,1.34890,83.19441
57.40000,1.34970,83.32864
57.50000,1.35060,83.43602
57.60000,1.35140,83.54341
57.70000,1.35220,83.67763
57.80000,1.35310,83.78502
57.90000,1.35390,83.94609
58.00000,1.35470,84.08032
58.10000,1.35560,84.18770
58.20000,1.35640,84.32193
58.30000,1.35720,84.48300
58.40000,1.35810,84.61723
58.50000,1.35890,84.72461
58.60000,1.35970,84.85884
58.70000,1.36060,84.99307
58.80000,1.36140,85.10045
58.90000,1.36220,85.23468
59.00000,1.36310,85.36890
59.10000,1.36390,85.50313
59.20000,1.36470,85.61051
59.30000,1.36560,85.71790
59.40000,1.36640,85.85212
59.50000,1.36720,85.98635
59.60000,1.36810,86.12058
59.70000,1.36890,86.22796
59.80000,1.36970,86.36219
59.90000,1.37060,86.52326
60.00000,1.37140,86.65749
60.10000,1.37220,86.79172
60.20000,1.37310,86.92595
60.30000,1.37390,87.06017
60.40000,1.37470,87.19440
60.50000,1.37560,87.32863
60.60000,1.37640,87.46286
60.70000,1.37720,87.59709
60.80000,1.37810,87.67762
60.90000,1.37890,87.78501
61.00000,1.37970,87.91923
61.10000,1.38060,88.05346
61.20000,1.38140,88.16084
61.30000,1.38220,88.26823
61.40000,1.38310,88.40245
61.50000,1.38390,88.53668
61.60000,1.38470,88.67091
61.70000,1.38560,88.80514
61.80000,1.38640,88.93936
61.90000,1.38720,89.04675
62.00000,1.38810,89.18097
62.10000,1.38890,89.31520
62.20000,1.38970,89.44943
62.30000,1.39060,89.55681
62.40000,1.39140,89.63735
62.50000,1.39220,89.77158
62.60000,1.39310,89.90581
62.70000,1.39390,90.04003
62.80000,1.39470,90.12057
62.90000,1.39560,90.25480
63.00000,1.39640,90.38903
63.10000,1.39720,90.52325
63.20000,1.39810,90.63064
63.30000,1.39890,90.79171
63.40000,1.39970,90.92594
63.50000,1.40060,91.00647
63.60000,1.40140,91.14070
63.70000,1.40220,91.24808
63.80000,1.40310,91.35547
63.90000,1.40390,91.46285
64.00000,1.40470,91.54338
64.10001,1.40560,91.67761
64.20000,1.40640,91.81184
64.30000,1.40720,91.91922
64.40000,1.40810,92.02661
64.50000,1.40890,92.16083
64.60001,1.40970,92.29506
64.70000,1.41060,92.40244
64.80000,1.41140,92.50983
64.90000,1.41220,92.64405
65.00000,1.41310,92.77828
65.10001,1.41390,92.88566
65.20000,1.41470,92.99305
65.30000,1.41560,93.12727
65.40000,1.41640,93.23466
65.50000,1.41720,93.34204
65.60001,1.41810,93.44942
65.70001,1.41890,93.55680
65.80000,1.41970,93.69103
65.90000,1.42060,93.79841
66.00000,1.42140,93.87895
66.10001,1.42220,93.98633
66.20001,1.42310,94.12056
66.30000,1.42390,94.22794
66.40000,1.42470,94.33532
66.50000,1.42560,94.46955
66.60001,1.42640,94.60378
66.70001,1.42720,94.71116
66.80000,1.42810,94.79170
66.90000,1.42890,94.92593
67.00000,1.42970,95.03331
67.10001,1.43060,95.16754
67.20001,1.43140,95.23465
67.30000,1.43220,95.36888
67.40000,1.43310,95.50311
67.50000,1.43390,95.63733
67.60001,1.43470,95.70445
67.70001,1.43560,95.83868
67.80000,1.43640,95.97290
67.90000,1.43720,96.04002
68.00000,1.43810,96.17425
68.10001,1.43890,96.30847
68.20001,1.43970,96.37559
68.30000,1.44060,96.50982
68.40000,1.44140,96.57693
68.50000,1.44220,96.71116
68.60001,1.44310,96.84538
68.70001,1.44390,96.91250
68.80000,1.44470,97.04673
68.90000,1.44560,97.18095
69.00000,1.44640,97.24807
69.10001,1.44720,97.31518
69.20001,1.44810,97.44941
69.30000,1.44890,97.58364
69.40000,1.44970,97.71787
69.50000,1.45060,97.78498
69.60001,1.45140,97.91921
69.70001,1.45220,98.05344
69.80000,1.45310,98.12055
69.90000,1.45390,98.18766
70.00000,1.45470,98.32189
70.10001,1.45560,98.45612
70.20001,1.45640,98.52323
70.30000,1.45720,98.59035
70.40000,1.45810,98.72457
70.50000,1.45890,98.79169
70.60001,1.45970,98.92592
70.70001,1.46060,98.99303
70.80000,1.46140,99.12726
70.90000,1.46220,99.19437
71.00000,1.46310,99.32860
71.10001,1.46390,99.46283
71.20001,1.46470,99.52994
71.30000,1.46560,99.66417
71.40000,1.46640,99.73128
71.50000,1.46720,99.86551
71.60001,1.46810,99.93263
71.70001,1.46890,100.06685
71.80000,1.46970,100.13397
71.90000,1.47060,100.20108
72.00000,1.47140,100.33531
72.10001,1.47220,100.40242
72.20001,1.47310,100.46954
72.30000,1.47390,100.60376
72.40000,1.47470,100.67088
72.50000,1.47560,100.80511
72.60001,1.47640,100.87222
72.70001,1.47720,101.00645
72.80000,1.47800,101.14068
72.90000,1.47890,101.20779
73.00000,1.47970,101.34202
73.10001,1.48050,101.40913
73.20001,1.48140,101.47625
73.30000,1.48220,101.61047
73.40000,1.48300,101.67759
73.50000,1.48390,101.74470
73.60001,1.48470,101.87893
73.70001,1.48550,101.94604
73.80000,1.48640,102.01316
73.90000,1.48720,102.14738
74.00000,1.48800,102.21450
74.10001,1.48890,102.34873
74.20001,1.48970,102.41584
74.30000,1.49050,102.48295
74.40000,1.49140,102.61718
74.50000,1.49220,102.68430
74.60001,1.49300,102.75141
74.70001,1.49390,102.88564
74.80000,1.49470,102.95275
74.90000,1.49550,103.01987
75.00000,1.49640,103.08698
75.10001,1.49720,103.15409
75.20001,1.49800,103.28832
75.30000,1.49890,103.35544
75.40000,1.49970,103.42255
75.50000,1.50050,103.48966
75.60001,1.50140,103.55678
75.70001,1.50220,103.69100
75.80000,1.50300,103.75812
75.90000,1.50390,103.82523
76.00000,1.50470,103.95946
76.10001,1.50550,104.09369
76.20001,1.50640,104.16080
76.30000,1.50720,104.22792
76.40000,1.50800,104.29503
76.50000,1.50890,104.42926
76.60001,1.50970,104.49637
76.70001,1.51050,104.56349
76.80000,1.51140,104.63060
76.90000,1.51220,104.69771
77.00000,1.51300,104.76483
77.10001,1.51390,104.83194
77.20001,1.51470,104.96617
77.30000,1.51550,105.03328
77.40000,1.51640,105.10040
77.50000,1.51720,105.23462
77.60001,1.51800,105.30174
77.70001,1.51890,105.36885
77.80000,1.51970,105.43597
77.90000,1.52050,105.50308
78.00000,1.52140,105.57019
78.10001,1.52220,105.63731
78.20001,1.52300,105.70442
78.30000,1.52390,105.77154
78.40000,1.52470,105.83865
78.50000,1.52550,105.97288
78.60001,1.52640,106.03999
78.70001,1.52720,106.10711
78.80000,1.52800,106.17422
78.90000,1.52890,106.24133
79.00000,1.52970,106.30845
79.10001,1.53050,106.37556
79.20001,1.53140,106.50979
79.30000,1.53220,106.57690
79.40000,1.53300,106.57690
79.50000,1.53390,106.71113
79.60001,1.53470,106.77825
79.70001,1.53550,106.84536
79.80000,1.53640,106.84536
79.90000,1.53720,106.91247
80.00000,1.53800,106.97959
80.10001,1.53890,107.04670
80.20001,1.53970,107.11381
80.30000,1.54050,107.18093
80.40000,1.54140,107.24804
80.50001,1.54220,107.31516
80.60001,1.54300,107.38227
80.70001,1.54390,107.44938
80.80000,1.54470,107.51650
80.90000,1.54550,107.58361
81.00001,1.54640,107.65073
81.10001,1.54720,107.71784
81.20001,1.54800,107.78495
81.30000,1.54890,107.85207
81.40000,1.54970,107.85207
81.50001,1.55050,107.91918
81.60001,1.55140,107.98630
81.70001,1.55220,108.05341
81.80000,1.55300,108.12052
81.90000,1.55390,108.18764
82.00001,1.55470,108.25475
82.10001,1.55550,108.32187
82.20001,1.55640,108.32187
82.30000,1.55720,108.45609
82.40000,1.55800,108.52321
82.50001,1.55890,108.52321
82.60001,1.55970,108.59032
82.70001,1.56050,108.65743
82.80000,1.56140,108.65743
82.90000,1.56220,108.72455
83.00001,1.56300,108.79166
83.10001,1.56390,108.79166
83.20001,1.56470,108.85878
83.30000,1.56550,108.92589
83.40000,1.56640,108.99300
83.50001,1.56720,109.06012
83.60001,1.56800,109.06012
83.70001,1.56890,109.12723
83.80000,1.56970,109.19435
83.90000,1.57050,109.26146
84.00001,1.57140,109.32857
84.10001,1.57220,109.32857
84.20001,1.57300,109.39569
84.30000,1.57390,109.39569
84.40000,1.57470,109.46280
84.50001,1.57550,109.52992
84.60001,1.57640,109.52992
84.70001,1.57720,109.59703
84.80000,1.57800,109.66414
84.90000,1.57890,109.66414
85.00001,1.57970,109.73126
85.10001,1.58050,109.73126
85.20001,1.58140,109.79837
85.30000,1.58220,109.86549
85.40000,1.58300,109.86549
85.50001,1.58390,109.93260
85.60001,1.58470,109.99971
85.70001,1.58550,110.06683
85.80000,1.58640,110.06683
85.90000,1.58720,110.13394
86.00001,1.58800,110.13394
86.10001,1.58890,110.20106
86.20001,1.58970,110.20106
86.30000,1.59050,110.26817
86.40000,1.59140,110.26817
86.50001,1.59220,110.33528
86.60001,1.59300,110.33528
86.70001,1.59390,110.40240
86.80000,1.59470,110.40240
86.90000,1.59550,110.46951
87.00001,1.59640,110.46951
87.10001,1.59720,110.53662
87.20001,1.59800,110.53662
87.30000,1.59890,110.53662
87.40000,1.59970,110.60374
87.50001,1.60050,110.60374
87.60001,1.60140,110.60374
87.70001,1.60220,110.67085
87.80000,1.60300,110.67085
87.90000,1.60390,110.67085
88.00001,1.60470,110.73797
88.10001,1.60550,110.73797
88.20001,1.60640,110.73797
88.30000,1.60720,110.80508
88.40000,1.60800,110.80508
88.50001,1.60890,110.87219
88.60001,1.60970,110.87219
88.70001,1.61050,110.93931
88.80000,1.61140,110.93931
88.90000,1.61220,110.93931
89.00001,1.61300,110.93931
89.10001,1.61390,111.00642
89.20001,1.61470,111.00642
89.30000,1.61550,111.00642
89.40000,1.61640,111.00642
89.50001,1.61720,111.00642
89.60001,1.61800,111.07354
89.70001,1.61890,111.07354
89.80000,1.61970,111.07354
89.90000,1.62050,111.07354
90.00001,1.62140,111.07354
90.10001,1.62220,111.07354
90.20001,1.62300,111.14065
90.30000,1.62390,111.14065
90.40000,1.62470,111.14065
90.50001,1.62550,111.14065
90.60001,1.62640,111.20776
90.70001,1.62720,111.20776
90.80000,1.62800,111.20776
90.90000,1.62890,111.14065
91.00001,1.62970,111.14065
91.10001,1.63050,111.14065
91.20001,1.63140,111.14065
91.30000,1.63220,111.14065
91.40000,1.63300,111.14065
91.50001,1.63390,111.14065
91.60001,1.63470,111.14065
91.70001,1.63550,111.20776
91.80000,1.63640,111.14065
91.90000,1.63720,111.20776
92.00001,1.63800,111.14065
92.10001,1.63890,111.14065
92.20001,1.63970,111.14065
92.30000,1.64050,111.14065
92.40000,1.64140,111.14065
92.50001,1.64220,111.14065
92.60001,1.64300,111.14065
92.70001,1.64390,111.07354
92.80000,1.64470,111.07354
92.90000,1.64550,111.07354
93.00001,1.64640,111.07354
93.10001,1.64720,111.07354
93.20001,1.64800,111.07354
93.30000,1.64890,111.07354
93.40000,1.64970,111.07354
93.50001,1.65050,111.07354
93.60001,1.65140,111.07354
93.70001,1.65220,111.07354
93.80000,1.65300,111.07354
93.90000,1.65390,111.07354
94.00001,1.65470,111.00642
94.10001,1.65550,111.00642
94.20001,1.65640,110.93931
94.30000,1.65720,110.93931
94.40000,1.65800,110.93931
94.50001,1.65890,110.87219
94.60001,1.65970,110.87219
94.70001,1.66050,110.87219
94.80000,1.66140,110.87219
94.90000,1.66220,110.80508
95.00001,1.66300,110.80508
95.10001,1.66390,110.80508
95.20001,1.66470,110.80508
95.30000,1.66550,110.73797
95.40000,1.66640,110.73797
95.50001,1.66720,110.67085
95.60001,1.66800,110.67085
95.70001,1.66890,110.60374
95.80000,1.66970,110.60374
95.90000,1.67050,110.53662
96.00001,1.67140,110.53662
96.10001,1.67220,110.46951
96.20001,1.67300,110.46951
96.30000,1.67390,110.46951
96.40000,1.67470,110.40240
96.50001,1.67550,110.40240
96.60001,1.67640,110.33528
96.70001,1.67720,110.33528
96.80000,1.67800,110.26817
96.90000,1.67890,110.20106
97.00001,1.67970,110.20106
97.10001,1.68050,110.13394
97.20001,1.68140,110.06683
97.30000,1.68220,109.99971
97.40000,1.68300,109.93260
97.50001,1.68390,109.93260
97.60001,1.68470,109.86549
97.70001,1.68550,109.79837
97.80000,1.68640,109.73126
97.90000,1.68720,109.73126
98.00001,1.68800,109.66414
98.10001,1.68890,109.59703
98.20001,1.68970,109.59703
98.30000,1.69050,109.52992
98.40000,1.69140,109.46280
98.50001,1.69220,109.39569
98.60001,1.69300,109.32857
98.70001,1.69390,109.26146
98.80000,1.69470,109.19435
98.90000,1.69550,109.12723
99.00001,1.69640,109.06012
99.10001,1.69720,108.99300
99.20001,1.69800,108.92589
99.30000,1.69890,108.79166
99.40000,1.69970,108.72455
99.50001,1.70050,108.65743
99.60001,1.70140,108.59032
99.70001,1.70220,108.52321
99.80000,1.70300,108.45609
99.90000,1.70390,108.32187
100.00001,1.70470,108.25475
100.10001,1.70550,108.12052
100.20001,1.70640,108.05341
100.30000,1.70720,107.98630
100.40000,1.70800,107.85207
100.50001,1.70890,107.71784
100.60001,1.70970,107.65073
100.70001,1.71050,107.51650
100.80000,1.71140,107.38227
100.90000,1.71220,107.24804
101.00001,1.71300,107.18093
101.10001,1.71390,107.04670
101.20001,1.71470,106.91247
101.30000,1.71550,106.77825
101.40000,1.71640,106.71113
101.50001,1.71720,106.57690
101.60001,1.71800,106.44268
101.70001,1.71890,106.24133
101.80000,1.71970,106.10711
101.90000,1.72050,105.97288
102.00001,1.72140,105.77154
102.10001,1.72220,105.57019
102.20001,1.72300,105.43597
102.30000,1.72390,105.30174
102.40000,1.72470,105.10040
102.50001,1.72550,104.89906
102.60001,1.72640,104.69771
102.70001,1.72720,104.49637
102.80000,1.72800,104.29503
102.90000,1.72890,104.02657
103.00001,1.72970,103.82523
103.10001,1.73050,103.62389
103.20001,1.73140,103.35544
103.30000,1.73220,103.08698
103.40000,1.73300,102.81852
103.50001,1.73390,102.55007
103.60001,1.73470,102.21450
103.70001,1.73550,101.87893
103.80000,1.73640,101.61047
103.90000,1.73720,101.27490
104.00001,1.73800,100.87222
104.10001,1.73890,100.46954
104.20001,1.73970,100.06685
104.30000,1.74050,99.66417
104.40000,1.74140,99.26149
104.50001,1.74220,98.79169
104.60001,1.74300,98.32189
104.70001,1.74390,97.78498
104.80000,1.74470,97.24807
104.90000,1.74550,96.64404
105.00001,1.74640,96.10713
105.10001,1.74720,95.43599
105.20001,1.74800,94.76485
105.30000,1.74890,94.09371
105.40000,1.74970,93.42257
105.50001,1.75050,92.68432
105.60001,1.75140,92.01318
105.70001,1.75220,91.27493
105.80000,1.75300,90.53668
105.90000,1.75390,89.86554
106.00001,1.75470,89.12728
106.10001,1.75550,88.45614
106.20001,1.75640,87.78501
106.30000,1.75720,87.04675
106.40000,1.75800,86.37561
106.50001,1.75890,85.77159
106.60001,1.75970,85.10045
106.70001,1.76050,84.49642
106.80000,1.76140,83.89240
106.90000,1.76220,83.30180
107.00001,1.76300,82.76488
107.10001,1.76390,82.25482
107.20001,1.76470,81.77160
107.30000,1.76550,81.31522
107.40000,1.76640,80.91254
107.50001,1.76720,80.50986
107.60001,1.76800,80.13402
107.70001,1.76890,79.78503
107.80000,1.76970,79.43603
107.90000,1.77050,79.08704
108.00001,1.77140,78.76489
108.10001,1.77220,78.46959
108.20001,1.77300,78.17429
108.30000,1.77390,77.90584
108.40000,1.77470,77.61053
108.50001,1.77550,77.36892
108.60001,1.77640,77.15416
108.70001,1.77720,76.93940
108.80000,1.77800,76.67094
108.90000,1.77890,76.48302
109.00001,1.77970,76.26826
109.10001,1.78050,76.08034
109.20001,1.78140,75.91926
109.30000,1.78220,75.75819
109.40000,1.78300,75.59712
109.50001,1.78390,75.46289
109.60001,1.78470,75.30182
109.70001,1.78550,75.16759
109.80000,1.78640,75.00651
109.90000,1.78720,74.87229
110.00001,1.78800,74.68437
110.10001,1.78890,74.57699
110.20001,1.78970,74.44276
110.30000,1.79050,74.33538
110.40000,1.79140,74.20115
110.50001,1.79220,74.09377
110.60001,1.79300,74.01323
110.70001,1.79390,73.93269
110.80000,1.79470,73.82531
110.90000,1.79550,73.74477
111.00001,1.79640,73.66424
111.10001,1.79720,73.55685
111.20001,1.79800,73.47632
111.30000,1.79890,73.39578
111.40000,1.79970,73.31524
111.50001,1.80050,73.23471
111.60001,1.80140,73.12732
111.70001,1.80220,73.07363
111.80000,1.80300,73.01994
111.90000,1.80390,72.93941
112.00001,1.80470,72.85887
112.10001,1.80550,72.80518
112.20001,1.80640,72.75149
112.30000,1.80720,72.69780
112.40000,1.80800,72.64410
112.50001,1.80890,72.59041
112.60001,1.80970,72.56357
112.70001,1.81050,72.48303
112.80000,1.81140,72.45619
112.90001,1.81220,72.42934
113.00001,1.81300,72.34880
113.10001,1.81390,72.29511
113.20001,1.81470,72.24142
113.30000,1.81550,72.21458
113.40001,1.81640,72.16088
113.50001,1.81720,72.10719
113.60001,1.81800,72.05350
113.70001,1.81890,72.02666
113.80000,1.81970,71.99981
113.90001,1.82050,71.94612
114.00001,1.82140,71.91927
114.10001,1.82220,71.91927
114.20001,1.82300,71.89243
114.30000,1.82390,71.83874
114.40001,1.82470,71.81189
114.50001,1.82550,71.75820
114.60001,1.82640,71.73135
114.70001,1.82720,71.70451
114.80000,1.82800,71.65082
114.90001,1.82890,71.62397
115.00001,1.82970,71.62397
115.10001,1.83050,71.59713
115.20001,1.83140,71.54344
115.30000,1.83220,71.51659
115.40001,1.83300,71.48974
115.50001,1.83390,71.46290
115.60001,1.83470,71.46290
115.70001,1.83550,71.46290
115.80000,1.83640,71.43605
115.90001,1.83720,71.40921
116.00001,1.83800,71.38236
116.10001,1.83890,71.35552
116.20001,1.83970,71.32867
116.30000,1.84050,71.30183
116.40001,1.84140,71.27498
116.50001,1.84220,71.24813
116.60001,1.84300,71.22129
116.70001,1.84390,71.22129
116.80000,1.84470,71.19444
116.90001,1.84550,71.16760
117.00001,1.84640,71.14075
117.10001,1.84720,71.11391
117.20001,1.84800,71.08706
117.30000,1.84890,71.08706
117.40001,1.84970,71.08706
117.50001,1.85050,71.03337
117.60001,1.85140,71.00652
117.70001,1.85220,71.00652
117.80000,1.85300,71.00652
117.90001,1.85390,70.97968
118.00001,1.85470,70.95283
118.10001,1.85550,70.97968
118.20001,1.85640,70.95283
118.30000,1.85720,70.92599
118.40001,1.85800,70.87230
118.50001,1.85890,70.87230
118.60001,1.85970,70.87230
118.70001,1.86050,70.84545
118.80000,1.86140,70.84545
118.90001,1.86220,70.84545
119.00001,1.86300,70.84545
119.10001,1.86390,70.81861
119.20001,1.86470,70.79176
119.30000,1.86550,70.76491
119.40001,1.86640,70.73807
119.50001,1.86720,70.71122
119.60001,1.86800,70.68438
119.70001,1.86890,70.68438
119.80000,1.86970,70.65753
119.90001,1.87050,70.60384
120.00001,1.87140,70.60384
120.10001,1.87220,70.57700
120.20001,1.87300,70.55015
120.30000,1.87390,70.52330
120.40001,1.87470,70.52330
120.50001,1.87550,70.49646
120.60001,1.87640,70.46961
120.70001,1.87720,70.44277
120.80000,1.87800,70.41592
120.90001,1.87890,70.41592
121.00001,1.87970,70.41592
121.10001,1.88050,70.38908
121.20001,1.88140,70.36223
121.30000,1.88220,70.36223
121.40001,1.88300,70.36223
121.50001,1.88390,70.30854
121.60001,1.88470,70.28169
121.70001,1.88550,70.28169
121.80000,1.88640,70.28169
121.90001,1.88720,70.25485
122.00001,1.88800,70.25485
122.10001,1.88890,70.25485
122.20001,1.88970,70.20116
122.30000,1.89050,70.17431
122.40001,1.89140,70.14747
122.50001,1.89220,70.12062
122.60001,1.89300,70.09378
122.70001,1.89390,70.06693
122.80000,1.89470,70.04008
122.90001,1.89550,70.04008
123.00001,1.89640,70.01324
123.10001,1.89720,69.98639
123.20001,1.89800,69.95955
123.30000,1.89890,69.93270
123.40001,1.89970,69.93270
123.50001,1.90050,69.93270
123.60001,1.90140,69.93270
123.70001,1.90220,69.90586
123.80000,1.90300,69.87901
123.90001,1.90390,69.85217
124.00001,1.90470,69.85217
124.10001,1.90550,69.82532
124.20001,1.90640,69.79847
124.30000,1.90720,69.74478
124.40001,1.90800,69.69109
124.50001,1.90890,69.69109
124.60001,1.90970,69.66425
124.70001,1.91050,69.63740
124.80000,1.91140,69.58371
124.90001,1.91220,69.58371
125.00001,1.91300,69.55686
125.10001,1.91390,69.53002
125.20001,1.91470,69.53002
125.30000,1.91550,69.50317
125.40001,1.91640,69.47633
125.50001,1.91720,69.44948
125.60001,1.91800,69.44948
125.70001,1.91890,69.42264
125.80000,1.91970,69.36894
125.90001,1.92050,69.34210
126.00001,1.92140,69.31525
126.10001,1.92220,69.31525
126.20001,1.92300,69.31525
126.30000,1.92390,69.26156
126.40001,1.92470,69.26156
126.50001,1.92550,69.26156
126.60001,1.92640,69.26156
126.70001,1.92720,69.23472
126.80000,1.92800,69.23472
126.90001,1.92890,69.23472
127.00001,1.92970,69.20787
127.10001,1.93050,69.20787
127.20001,1.93140,69.20787
127.30000,1.93220,69.18103
127.40001,1.93300,69.15418
127.50001,1.93390,69.12733
127.60001,1.93470,69.10049
127.70001,1.93550,69.10049
127.80000,1.93640,69.04680
127.90001,1.93720,69.01995
128.00000,1.93800,69.01995
128.10001,1.93890,69.01995
128.20002,1.93970,69.01995
128.30000,1.94050,69.01995
128.40001,1.94140,69.01995
128.50000,1.94220,69.01995
128.60001,1.94300,68.99311
128.70002,1.94390,68.99311
128.80000,1.94470,68.99311
128.90001,1.94550,68.96626
129.00000,1.94640,68.93942
129.10001,1.94720,68.91257
129.20002,1.94800,68.93942
129.30000,1.94890,68.91257
129.40001,1.94970,68.91257
129.50000,1.95050,68.88572
129.60001,1.95140,68.91257
129.70002,1.95220,68.91257
129.80000,1.95300,68.88572
129.90001,1.95390,68.91257
130.00000,1.95470,68.91257
130.10001,1.95550,68.91257
130.20002,1.95640,68.88572
130.30000,1.95720,68.85888
130.40001,1.95800,68.85888
130.50000,1.95890,68.85888
130.60001,1.95970,68.83203
130.70002,1.96050,68.80519
130.80000,1.96140,68.80519
130.90001,1.96220,68.80519
131.00000,1.96300,68.77834
131.10000,1.96390,68.77834
131.20002,1.96470,68.77834
131.30000,1.96550,68.80519
131.40002,1.96640,68.77834
131.50000,1.96720,68.80519
131.60000,1.96800,68.83203
131.70002,1.96890,68.83203
131.80000,1.96970,68.80519
131.90002,1.97050,68.80519
132.00000,1.97140,68.80519
132.10000,1.97220,68.80519
132.20002,1.97300,68.77834
132.30000,1.97390,68.77834
132.40002,1.97470,68.80519
132.50000,1.97550,68.80519
132.60000,1.97640,68.75150
132.70002,1.97720,68.75150
132.80000,1.97800,68.75150
132.90002,1.97890,68.75150
133.00000,1.97970,68.75150
133.10000,1.98050,68.75150
133.20002,1.98140,68.77834
133.30000,1.98220,68.77834
133.40002,1.98300,68.75150
133.50000,1.98390,68.75150
133.60000,1.98470,68.75150
133.70002,1.98550,68.75150
133.80000,1.98640,68.72465
133.90002,1.98720,68.72465
134.00000,1.98800,68.72465
134.10000,1.98890,68.72465
134.20002,1.98970,68.69781
134.30000,1.99050,68.69781
134.40002,1.99140,68.69781
134.50000,1.99220,68.72465
134.60000,1.99300,68.72465
134.70002,1.99390,68.72465
134.80000,1.99470,68.75150
134.90002,1.99550,68.75150
135.00000,1.99640,68.72465
135.10000,1.99720,68.72465
135.20002,1.99800,68.72465
135.30000,1.99880,68.69781
135.40002,1.99970,68.67096
135.50000,2.00050,68.69781
135.60000,2.00130,68.72465
135.70002,2.00220,68.72465
135.80000,2.00300,68.69781
135.90002,2.00380,68.69781
136.00000,2.00470,68.69781
136.10000,2.00550,68.69781
136.20002,2.00630,68.69781
136.30000,2.00720,68.69781
136.40002,2.00800,68.72465
136.50000,2.00880,68.69781
136.60000,2.00970,68.69781
136.70002,2.01050,68.69781
136.80000,2.01130,68.67096
136.90002,2.01220,68.67096
137.00000,2.01300,68.64411
137.10000,2.01380,68.64411
137.20002,2.01470,68.64411
137.30000,2.01550,68.61727
137.40002,2.01630,68.59042
137.50000,2.01720,68.59042
137.60000,2.01800,68.61727
137.70002,2.01880,68.59042
137.80000,2.01970,68.61727
137.90002,2.02050,68.61727
138.00000,2.02130,68.61727
138.10000,2.02220,68.59042
138.20002,2.02300,68.59042
138.30000,2.02380,68.56358
138.40002,2.02470,68.56358
138.50000,2.02550,68.53673
138.60000,2.02630,68.53673
138.70002,2.02720,68.53673
138.80000,2.02800,68.50989
138.90002,2.02880,68.48304
139.00000,2.02970,68.48304
139.10000,2.03050,68.48304
139.20002,2.03130,68.48304
139.30000,2.03220,68.45620
139.40002,2.03300,68.48304
139.50000,2.03380,68.48304
139.60000,2.03470,68.50989
139.70002,2.03550,68.48304
139.80000,2.03630,68.48304
139.90002,2.03720,68.45620
140.00000,2.03800,68.45620
140.10000,2.03880,68.42935
140.20002,2.03970,68.40250
140.30000,2.04050,68.40250
140.40002,2.04130,68.37566
140.50000,2.04220,68.37566
140.60000,2.04300,68.34881
140.70002,2.04380,68.37566
140.80000,2.04470,68.37566
140.90002,2.04550,68.37566
141.00000,2.04630,68.37566
141.10000,2.04720,68.40250
141.20002,2.04800,68.37566
141.30000,2.04880,68.34881
141.40002,2.04970,68.34881
141.50000,2.05050,68.34881
141.60000,2.05130,68.32197
141.70002,2.05220,68.32197
141.80000,2.05300,68.29512
141.90002,2.05380,68.29512
142.00000,2.05470,68.29512
142.10000,2.05550,68.26828
142.20002,2.05630,68.26828
142.30000,2.05720,68.26828
142.40002,2.05800,68.26828
142.50000,2.05880,68.26828
142.60000,2.05970,68.29512
142.70002,2.06050,68.32197
142.80000,2.06130,68.32197
142.90002,2.06220,68.32197
143.00000,2.06300,68.34881
143.10000,2.06380,68.34881
143.20002,2.06470,68.32197
143.30000,2.06550,68.29512
143.40002,2.06630,68.29512
143.50000,2.06720,68.29512
143.60000,2.06800,68.29512
143.70002,2.06880,68.26828
143.80000,2.06970,68.26828
143.90002,2.07050,68.29512
144.00000,2.07130,68.29512
144.10000,2.07220,68.29512
144.20002,2.07300,68.32197
144.30000,2.07380,68.32197
144.40002,2.07470,68.29512
144.50000,2.07550,68.26828
144.60000,2.07630,68.26828
144.70002,2.07720,68.26828
144.80000,2.07800,68.26828
144.90002,2.07880,68.26828
145.00000,2.07970,68.24143
145.10000,2.08050,68.24143
145.20002,2.08130,68.21459
145.30000,2.08220,68.18774
145.40002,2.08300,68.21459
145.50000,2.08380,68.21459
145.60000,2.08470,68.18774
145.70002,2.08550,68.18774
145.80000,2.08630,68.18774
145.90002,2.08720,68.21459
146.00000,2.08800,68.18774
146.10000,2.08880,68.18774
146.20002,2.08970,68.18774
146.30000,2.09050,68.18774
146.40002,2.09130,68.16089
146.50000,2.09220,68.13405
146.60000,2.09300,68.13405
146.70002,2.09380,68.13405
146.80000,2.09470,68.10720
146.90002,2.09550,68.10720
147.00000,2.09630,68.10720
147.10000,2.09720,68.10720
147.20002,2.09800,68.10720
147.30000,2.09880,68.10720
147.40002,2.09970,68.10720
147.50000,2.10050,68.10720
147.60000,2.10130,68.08036
147.70002,2.10220,68.08036
147.80000,2.10300,68.08036
147.90002,2.10380,68.08036
148.00000,2.10470,68.05351
148.10000,2.10550,68.02667
148.20002,2.10630,68.02667
148.30000,2.10720,68.02667
148.40002,2.10800,68.02667
148.50000,2.10880,67.99982
148.60000,2.10970,67.99982
148.70002,2.11050,67.99982
148.80000,2.11130,67.99982
148.90002,2.11220,67.99982
149.00000,2.11300,68.02667
149.10000,2.11380,68.02667
149.20002,2.11470,67.99982
149.30000,2.11550,67.99982
149.40002,2.11630,67.99982
149.50000,2.11720,67.97298
149.60000,2.11800,67.94613
149.70002,2.11880,67.94613
149.80000,2.11970,67.94613
149.90002,2.12050,67.94613
150.00000,2.12130,67.94613
150.10000,2.12220,67.91928
150.20002,2.12300,67.91928
150.30000,2.12380,67.91928
150.40002,2.12470,67.89244
150.50000,2.12550,67.89244
150.60000,2.12630,67.89244
150.70002,2.12720,67.89244
150.80000,2.12800,67.86559
150.90002,2.12880,67.86559
151.00000,2.12970,67.86559
151.10000,2.13050,67.86559
151.20002,2.13130,67.83875
151.30000,2.13220,67.83875
151.40002,2.13300,67.83875
151.50000,2.13380,67.83875
151.60000,2.13470,67.81190
151.70002,2.13550,67.78506
151.80000,2.13630,67.78506
151.90002,2.13720,67.78506
152.00000,2.13800,67.78506
152.10000,2.13880,67.78506
152.20002,2.13970,67.78506
152.30000,2.14050,67.78506
152.40002,2.14130,67.75821
152.50000,2.14220,67.75821
152.60000,2.14300,67.73137
152.70002,2.14380,67.70452
152.80000,2.14470,67.67767
152.90002,2.14550,67.65083
153.00000,2.14630,67.62398
153.10000,2.14720,67.62398
153.20002,2.14800,67.57029
153.30000,2.14880,67.57029
153.40002,2.14970,67.54345
153.50000,2.15050,67.54345
153.60000,2.15130,67.51660
153.70002,2.15220,67.48976
153.80000,2.15300,67.48976
153.90002,2.15380,67.46291
154.00000,2.15470,67.40922
154.10000,2.15550,67.40922
154.20002,2.15630,67.38237
154.30000,2.15720,67.38237
154.40002,2.15800,67.32868
154.50000,2.15880,67.30184
154.60000,2.15970,67.30184
154.70002,2.16050,67.27499
154.80000,2.16130,67.24814
154.90002,2.16220,67.22130
155.00000,2.16300,67.19445
155.10000,2.16380,67.19445
155.20002,2.16470,67.16761
155.30000,2.16550,67.16761
155.40002,2.16630,67.16761
155.50000,2.16720,67.14076
155.60000,2.16800,67.08707
155.70002,2.16880,67.06023
155.80000,2.16970,67.06023
155.90002,2.17050,67.03338
156.00000,2.17130,67.00653
156.10000,2.17220,66.97969
156.20002,2.17300,66.97969
156.30000,2.17380,66.97969
156.40002,2.17470,66.95284
156.50000,2.17550,66.92600
156.60000,2.17630,66.92600
156.70002,2.17720,66.92600
156.80000,2.17800,66.92600
156.90002,2.17880,66.92600
157.00000,2.17970,66.92600
157.10000,2.18050,66.89915
157.20002,2.18130,66.87231
157.30000,2.18220,66.89915
157.40002,2.18300,66.87231
157.50000,2.18380,66.84546
157.60000,2.18470,66.81862
157.70002,2.18550,66.76492
157.80000,2.18630,66.79177
157.90002,2.18720,66.76492
158.00000,2.18800,66.73808
158.10000,2.18880,66.71123
158.20002,2.18970,66.71123
158.30000,2.19050,66.71123
158.40002,2.19130,66.71123
158.50000,2.19220,66.71123
158.60000,2.19300,66.71123
158.70002,2.19380,66.68439
158.80000,2.19470,66.68439
158.90002,2.19550,66.65754
159.00000,2.19630,66.65754
159.10000,2.19720,66.63070
159.20002,2.19800,66.60385
159.30000,2.19880,66.57701
159.40002,2.19970,66.60385
159.50000,2.20050,66.60385
159.60000,2.20130,66.57701
159.70002,2.20220,66.55016
159.80000,2.20300,66.57701
159.90002,2.20380,66.60385
160.00000,2.20470,66.57701
160.10000,2.20550,66.57701
160.20002,2.20630,66.60385
160.30000,2.20720,66.60385
160.40002,2.20800,66.57701
160.50000,2.20880,66.57701
160.60000,2.20970,66.57701
160.70002,2.21050,66.55016
160.80000,2.21130,66.52331
160.90002,2.21220,66.52331
161.00002,2.21300,66.52331
161.10000,2.21380,66.49647
161.20002,2.21470,66.46962
161.30000,2.21550,66.46962
161.40002,2.21630,66.46962
161.50002,2.21720,66.46962
161.60000,2.21800,66.46962
161.70002,2.21880,66.46962
161.80000,2.21970,66.46962
161.90002,2.22050,66.46962
162.00002,2.22130,66.44278
162.10000,2.22220,66.44278
162.20002,2.22300,66.44278
162.30000,2.22380,66.38909
162.40002,2.22470,66.38909
162.50002,2.22550,66.38909
162.60000,2.22630,66.38909
162.70002,2.22720,66.38909
162.80000,2.22800,66.36224
162.90002,2.22880,66.36224
163.00002,2.22970,66.36224
163.10000,2.23050,66.36224
163.20002,2.23130,66.36224
163.30000,2.23220,66.38909
163.40002,2.23300,66.38909
163.50002,2.23380,66.36224
163.60000,2.23470,66.33540
163.70002,2.23550,66.36224
163.80000,2.23630,66.33540
163.90002,2.23720,66.30855
164.00002,2.23800,66.28170
164.10000,2.23880,66.30855
164.20002,2.23970,66.30855
164.30000,2.24050,66.28170
164.40002,2.24130,66.28170
164.50002,2.24220,66.28170
164.60000,2.24300,66.28170
164.70002,2.24380,66.28170
164.80000,2.24470,66.28170
164.90002,2.24550,66.30855
165.00002,2.24630,66.30855
165.10000,2.24720,66.28170
165.20002,2.24800,66.28170
165.30000,2.24880,66.28170
165.40002,2.24970,66.28170
165.50002,2.25050,66.25486
165.60000,2.25130,66.22801
165.70002,2.25220,66.25486
165.80000,2.25300,66.25486
165.90002,2.25380,66.22801
166.00002,2.25470,66.22801
166.10000,2.25550,66.22801
166.20002,2.25630,66.22801
166.30000,2.25720,66.22801
166.40002,2.25800,66.22801
166.50002,2.25880,66.22801
166.60000,2.25970,66.22801
166.70002,2.26050,66.22801
166.80000,2.26130,66.20117
166.90002,2.26220,66.20117
167.00002,2.26300,66.20117
167.10000,2.26380,66.17432
167.20002,2.26470,66.17432
167.30000,2.26550,66.17432
167.40002,2.26630,66.17432
167.50002,2.26720,66.14748
167.60000,2.26800,66.14748
167.70002,2.26880,66.14748
167.80000,2.26970,66.17432
167.90002,2.27050,66.17432
168.00002,2.27130,66.17432
168.10000,2.27220,66.20117
168.20002,2.27300,66.20117
168.30000,2.27380,66.17432
168.40002,2.27470,66.17432
168.50002,2.27550,66.17432
168.60000,2.27630,66.17432
168.70002,2.27720,66.14748
168.80000,2.27800,66.14748
168.90002,2.27880,66.17432
169.00002,2.27970,66.17432
169.10000,2.28050,66.14748
169.20002,2.28130,66.14748
169.30000,2.28220,66.14748
169.40002,2.28300,66.14748
169.50002,2.28380,66.14748
169.60000,2.28470,66.14748
169.70002,2.28550,66.14748
169.80000,2.28630,66.14748
169.90002,2.28720,66.12063
170.00002,2.28800,66.12063
170.10000,2.28880,66.12063
170.20002,2.28970,66.09379
170.30000,2.29050,66.06694
170.40002,2.29130,66.06694
170.50002,2.29220,66.09379
170.60000,2.29300,66.06694
170.70002,2.29380,66.01325
170.80000,2.29470,66.04009
170.90002,2.29550,66.04009
171.00002,2.29630,66.04009
171.10000,2.29720,66.04009
171.20002,2.29800,66.06694
171.30000,2.29880,66.06694
171.40002,2.29970,66.04009
171.50002,2.30050,66.04009
171.60000,2.30130,66.01325
171.70002,2.30220,65.98640
171.80000,2.30300,65.98640
171.90002,2.30380,65.93271
172.00002,2.30470,65.93271
172.10000,2.30550,65.93271
172.20002,2.30630,65.90587
172.30000,2.30720,65.85218
172.40002,2.30800,65.85218
172.50002,2.30880,65.85218
172.60000,2.30970,65.85218
172.70002,2.31050,65.82533
172.80000,2.31130,65.82533
172.90002,2.31220,65.79848
173.00002,2.31300,65.77164
173.10000,2.31380,65.74479
173.20002,2.31470,65.74479
173.30000,2.31550,65.71795
173.40002,2.31630,65.69110
173.50002,2.31720,65.63741
173.60000,2.31800,65.61057
173.70002,2.31880,65.58372
173.80000,2.31970,65.53003
173.90002,2.32050,65.47634
174.00002,2.32130,65.44949
174.10000,2.32220,65.44949
174.20002,2.32300,65.39580
174.30000,2.32380,65.34211
174.40002,2.32470,65.28842
174.50002,2.32550,65.26157
174.60000,2.32630,65.18104
174.70002,2.32720,65.10050
174.80000,2.32800,65.04681
174.90002,2.32880,64.99312
175.00002,2.32970,64.93943
175.10000,2.33050,64.85889
175.20002,2.33130,64.77835
175.30000,2.33220,64.75151
175.40002,2.33300,64.69782
175.50002,2.33380,64.61728
175.60000,2.33470,64.56359
175.70002,2.33550,64.48305
175.80000,2.33630,64.42936
175.90002,2.33720,64.34882
176.00002,2.33800,64.29513
176.10000,2.33880,64.24144
176.20002,2.33970,64.16090
176.30000,2.34050,64.08037
176.40002,2.34130,64.02668
176.50002,2.34220,63.94614
176.60000,2.34300,63.86560
176.70002,2.34380,63.78507
176.80000,2.34470,63.70453
176.90002,2.34550,63.65084
177.00002,2.34630,63.57030
177.10000,2.34720,63.48977
177.20002,2.34800,63.43607
177.30000,2.34880,63.38238
177.40002,2.34970,63.30185
177.50002,2.35050,63.24816
177.60000,2.35130,63.22131
177.70002,2.35220,63.14077
177.80000,2.35300,63.06024
177.90002,2.35380,63.00655
178.00002,2.35470,62.92601
178.10000,2.35550,62.87232
178.20002,2.35630,62.79178
178.30000,2.35720,62.71124
178.40002,2.35800,62.65755
178.50002,2.35880,62.60386
178.60000,2.35970,62.52332
178.70002,2.36050,62.44279
178.80000,2.36130,62.38910
178.90002,2.36220,62.33541
179.00002,2.36300,62.25487
179.10000,2.36380,62.17433
179.20002,2.36470,62.14749
179.30000,2.36550,62.06695
179.40002,2.36630,61.98641
179.50002,2.36720,61.93272
179.60000,2.36800,61.85219
179.70002,2.36880,61.71796
179.80000,2.36970,61.61058
179.90002,2.37050,61.50319
180.00002,2.37130,61.42266
180.10000,2.37220,61.36897
180.20002,2.37300,61.28843
180.30000,2.37380,61.20789
180.40002,2.37470,61.12736
180.50002,2.37550,61.07366
180.60000,2.37630,60.96628
180.70002,2.37720,60.91259
180.80000,2.37800,60.85890
180.90002,2.37880,60.77836
181.00002,2.37970,60.69783
181.10000,2.38050,60.61729
181.20002,2.38130,60.56360
181.30000,2.38220,60.48306
181.40002,2.38300,60.40252
181.50002,2.38380,60.32199
181.60000,2.38470,60.26830
181.70002,2.38550,60.21461
181.80000,2.38630,60.13407
181.90002,2.38720,60.02669
182.00002,2.38800,59.97300
182.10000,2.38880,59.86561
182.20002,2.38970,59.75823
182.30000,2.39050,59.67769
182.40002,2.39130,59.59716
182.50002,2.39220,59.51662
182.60000,2.39300,59.40924
182.70002,2.39380,59.30186
182.80000,2.39470,59.22132
182.90002,2.39550,59.11394
183.00002,2.39630,59.00656
183.10000,2.39720,58.89917
183.20002,2.39800,58.79179
183.30000,2.39880,58.71125
183.40002,2.39970,58.60387
183.50002,2.40050,58.46964
183.60000,2.40130,58.38911
183.70002,2.40220,58.28172
183.80000,2.40300,58.14750
183.90002,2.40380,58.04011
184.00002,2.40470,57.82535
184.10000,2.40550,57.66428
184.20002,2.40630,57.50320
184.30000,2.40720,57.36898
184.40002,2.40800,57.26159
184.50002,2.40880,57.12737
184.60000,2.40970,56.96629
184.70002,2.41050,56.85891
184.80000,2.41130,56.75153
184.90002,2.41220,56.64415
185.00002,2.41300,56.50992
185.10000,2.41380,56.37569
185.20002,2.41470,56.29515
185.30000,2.41550,56.18777
185.40002,2.41630,56.10723
185.50002,2.41720,56.02670
185.60000,2.41800,55.94616
185.70002,2.41880,55.86562
185.80000,2.41970,55.75824
185.90002,2.42050,55.70455
186.00002,2.42130,55.62401
186.10000,2.42220,55.54348
186.20002,2.42300,55.46294
186.30000,2.42380,55.38240
186.40002,2.42470,55.32871
186.50002,2.42550,55.24818
186.60000,2.42630,55.19448
186.70002,2.42720,55.11395
186.80000,2.42800,55.08710
186.90002,2.42880,55.00657
187.00002,2.42970,54.97972
187.10000,2.43050,54.92603
187.20002,2.43130,54.89918
187.30000,2.43220,54.81865
187.40002,2.43300,54.76496
187.50002,2.43380,54.73811
187.60000,2.43470,54.71126
187.70002,2.43550,54.65757
187.80000,2.43630,54.60388
187.90002,2.43720,54.57704
188.00002,2.43800,54.57704
188.10000,2.43880,54.55019
188.20002,2.43970,54.49650
188.30000,2.44050,54.49650
188.40002,2.44130,54.46965
188.50002,2.44220,54.46965
188.60000,2.44300,54.44281
188.70002,2.44380,54.41596
188.80000,2.44470,54.38912
188.90002,2.44550,54.36227
189.00002,2.44630,54.33543
189.10000,2.44720,54.33543
189.20002,2.44800,54.30858
189.30000,2.44880,54.30858
189.40002,2.44970,54.28174
189.50002,2.45050,54.25489
189.60000,2.45130,54.25489
189.70002,2.45220,54.25489
189.80000,2.45300,54.20120
189.90002,2.45380,54.20120
190.00002,2.45470,54.20120
190.10000,2.45550,54.20120
190.20002,2.45630,54.20120
190.30000,2.45720,54.22804
190.40002,2.45800,54.22804
190.50002,2.45880,54.22804
190.60000,2.45970,54.20120
190.70002,2.46050,54.20120
190.80000,2.46130,54.20120
190.90002,2.46220,54.17435
191.00002,2.46300,54.14751
191.10000,2.46380,54.14751
191.20002,2.46470,54.14751
191.30000,2.46550,54.14751
191.40002,2.46630,54.12066
191.50002,2.46720,54.12066
191.60000,2.46800,54.12066
191.70002,2.46880,54.14751
191.80000,2.46970,54.12066
191.90002,2.47050,54.12066
192.00002,2.47130,54.12066
192.10000,2.47220,54.12066
192.20002,2.47300,54.12066
192.30000,2.47380,54.12066
192.40002,2.47470,54.12066
192.50002,2.47550,54.12066
192.60000,2.47630,54.09382
192.70002,2.47720,54.09382
192.80000,2.47800,54.12066
192.90002,2.47880,54.12066
193.00002,2.47970,54.09382
193.10000,2.48050,54.12066
193.20002,2.48130,54.12066
193.30000,2.48220,54.14751
193.40002,2.48300,54.14751
193.50002,2.48380,54.17435
193.60000,2.48470,54.20120
193.70002,2.48550,54.20120
193.80000,2.48630,54.20120
193.90002,2.48720,54.20120
194.00002,2.48800,54.20120
194.10000,2.48880,54.17435
194.20002,2.48970,54.14751
194.30000,2.49050,54.17435
194.40002,2.49130,54.17435
194.50002,2.49220,54.17435
194.60000,2.49300,54.14751
194.70002,2.49380,54.17435
194.80000,2.49470,54.17435
194.90002,2.49550,54.17435
195.00002,2.49630,54.17435
195.10000,2.49720,54.20120
195.20002,2.49800,54.20120
195.30000,2.49880,54.17435
195.40002,2.49970,54.20120
195.50002,2.50050,54.20120
195.60000,2.50130,54.20120
195.70002,2.50220,54.17435
195.80000,2.50300,54.17435
195.90002,2.50380,54.17435
196.00002,2.50470,54.17435
196.10000,2.50550,54.14751
196.20002,2.50630,54.17435
196.30000,2.50720,54.17435
196.40002,2.50800,54.20120
196.50002,2.50880,54.20120
196.60000,2.50970,54.22804
196.70002,2.51050,54.22804
196.80000,2.51130,54.20120
196.90002,2.51220,54.20120
197.00002,2.51300,54.20120
197.10000,2.51380,54.20120
197.20002,2.51470,54.17435
197.30000,2.51550,54.14751
197.40002,2.51630,54.14751
197.50002,2.51720,54.17435
197.60000,2.51800,54.17435
197.70002,2.51880,54.14751
197.80000,2.51960,54.17435
197.90002,2.52050,54.17435
198.00002,2.52130,54.17435
198.10000,2.52210,54.17435
198.20002,2.52300,54.20120
198.30000,2.52380,54.20120
198.40002,2.52460,54.20120
198.50002,2.52550,54.17435
198.60000,2.52630,54.17435
198.70002,2.52710,54.20120
198.80000,2.52800,54.17435
198.90002,2.52880,54.14751
199.00002,2.52960,54.17435
199.10000,2.53050,54.17435
199.20002,2.53130,54.17435
199.30000,2.53210,54.14751
199.40002,2.53300,54.12066
199.50002,2.53380,54.12066
199.60000,2.53460,54.14751
199.70002,2.53550,54.12066
199.80000,2.53630,54.14751
199.90002,2.53710,54.17435
200.00002,2.53800,54.14751
200.10000,2.53880,54.12066
200.20002,2.53960,54.12066
200.30000,2.54050,54.12066
200.40002,2.54130,54.12066
200.50002,2.54210,54.09382
200.60000,2.54300,54.09382
200.70002,2.54380,54.12066
200.80000,2.54460,54.09382
200.90002,2.54550,54.09382
201.00002,2.54630,54.09382
201.10000,2.54710,54.09382
201.20002,2.54800,54.12066
201.30000,2.54880,54.09382
201.40002,2.54960,54.09382
201.50002,2.55050,54.12066
201.60000,2.55130,54.12066
201.70002,2.55210,54.09382
201.80000,2.55300,54.09382
201.90002,2.55380,54.09382
202.00002,2.55460,54.09382
202.10000,2.55550,54.06697
202.20002,2.55630,54.06697
202.30000,2.55710,54.06697
202.40002,2.55800,54.04013
202.50002,2.55880,54.01328
202.60000,2.55960,54.04013
202.70002,2.56050,54.04013
202.80000,2.56130,54.04013
202.90002,2.56210,54.04013
203.00002,2.56300,54.04013
203.10000,2.56380,54.04013
203.20002,2.56460,54.01328
203.30000,2.56550,53.98643
203.40002,2.56630,53.98643
203.50002,2.56710,53.98643
203.60000,2.56800,53.95959
203.70002,2.56880,53.95959
203.80000,2.56960,53.95959
203.90002,2.57050,53.93274
204.00002,2.57130,53.90590
204.10000,2.57210,53.90590
204.20002,2.57300,53.90590
204.30000,2.57380,53.93274
204.40002,2.57460,53.90590
204.50002,2.57550,53.93274
204.60000,2.57630,53.93274
204.70002,2.57710,53.93274
204.80000,2.57800,53.90590
204.90002,2.57880,53.90590
205.00002,2.57960,53.90590
205.10000,2.58050,53.87905
205.20002,2.58130,53.85221
205.30000,2.58210,53.82536
205.40002,2.58300,53.82536
205.50002,2.58380,53.79851
205.60000,2.58460,53.77167
205.70002,2.58550,53.77167
205.80000,2.58630,53.74482
205.90002,2.58710,53.77167
206.00002,2.58800,53.74482
206.10000,2.58880,53.77167
206.20002,2.58960,53.77167
206.30000,2.59050,53.77167
206.40002,2.59130,53.71798
206.50002,2.59210,53.71798
206.60000,2.59300,53.71798
206.70002,2.59380,53.71798
206.80000,2.59460,53.69113
206.90002,2.59550,53.66429
207.00002,2.59630,53.63744
207.10000,2.59710,53.66429
207.20002,2.59800,53.61060
207.30000,2.59880,53.61060
207.40002,2.59960,53.58375
207.50002,2.60050,53.58375
207.60000,2.60130,53.53006
207.70002,2.60210,53.53006
207.80000,2.60300,53.53006
207.90002,2.60380,53.47637
208.00002,2.60460,53.44952
208.10000,2.60550,53.42268
208.20002,2.60630,53.42268
208.30000,2.60710,53.39583
208.40002,2.60800,53.34214
208.50002,2.60880,53.31529
208.60000,2.60960,53.28845
208.70002,2.61050,53.26160
208.80000,2.61130,53.23476
208.90002,2.61210,53.18107
209.00002,2.61300,53.18107
209.10000,2.61380,53.18107
209.20002,2.61460,53.15422
209.30000,2.61550,53.15422
209.40002,2.61630,53.15422
209.50002,2.61710,53.10053
209.60000,2.61800,53.07368
209.70002,2.61880,53.07368
209.80000,2.61960,53.04684
209.90002,2.62050,53.01999
210.00002,2.62130,52.96630
210.10000,2.62210,52.93946
210.20002,2.62300,52.93946
210.30000,2.62380,52.88577
210.40002,2.62460,52.85892
210.50002,2.62550,52.83207
210.60000,2.62630,52.80523
210.70002,2.62710,52.77838
210.80000,2.62800,52.75154
210.90002,2.62880,52.75154
211.00002,2.62960,52.72469
211.10000,2.63050,52.69785
211.20002,2.63130,52.64416
211.30000,2.63210,52.64416
211.40002,2.63300,52.61731
211.50002,2.63380,52.56362
211.60000,2.63460,52.53677
211.70002,2.63550,52.48308
211.80000,2.63630,52.45624
211.90002,2.63710,52.45624
212.00002,2.63800,52.40255
212.10000,2.63880,52.37570
212.20002,2.63960,52.37570
212.30000,2.64050,52.34885
212.40002,2.64130,52.32201
212.50002,2.64210,52.32201
212.60000,2.64300,52.29516
212.70002,2.64380,52.26832
212.80000,2.64460,52.24147
212.90002,2.64550,52.24147
213.00002,2.64630,52.21463
213.10000,2.64710,52.18778
213.20002,2.64800,52.13409
213.30000,2.64880,52.13409
213.40002,2.64960,52.10724
213.50002,2.65050,52.08040
213.60000,2.65130,52.05355
213.70002,2.65210,52.05355
213.80000,2.65300,52.02671
213.90002,2.65380,51.99986
214.00002,2.65460,51.99986
214.10000,2.65550,51.99986
214.20002,2.65630,51.99986
214.30000,2.65710,51.97302
214.40002,2.65800,51.94617
214.50002,2.65880,51.94617
214.60000,2.65960,51.91933
214.70002,2.66050,51.89248
214.80000,2.66130,51.86563
214.90002,2.66210,51.83879
215.00002,2.66300,51.83879
215.10000,2.66380,51.81194
215.20002,2.66460,51.78510
215.30000,2.66550,51.75825
215.40002,2.66630,51.78510
215.50002,2.66710,51.75825
215.60000,2.66800,51.75825
215.70002,2.66880,51.75825
215.80000,2.66960,51.75825
215.90002,2.67050,51.73141
216.00002,2.67130,51.70456
216.10000,2.67210,51.67772
216.20002,2.67300,51.67772
216.30000,2.67380,51.65087
216.40002,2.67460,51.62402
216.50002,2.67550,51.62402
216.60000,2.67630,51.62402
216.70002,2.67710,51.59718
216.80000,2.67800,51.57033
216.90002,2.67880,51.54349
217.00002,2.67960,51.54349
217.10000,2.68050,51.54349
217.20002,2.68130,51.51664
217.30000,2.68210,51.54349
217.40002,2.68300,51.51664
217.50002,2.68380,51.51664
217.60000,2.68460,51.48980
217.70002,2.68550,51.48980
217.80000,2.68630,51.46295
217.90002,2.68710,51.43610
218.00002,2.68800,51.40926
218.10000,2.68880,51.40926
218.20002,2.68960,51.40926
218.30000,2.69050,51.40926
218.40002,2.69130,51.38241
218.50002,2.69210,51.35557
218.60000,2.69300,51.38241
218.70002,2.69380,51.35557
218.80000,2.69460,51.35557
218.90002,2.69550,51.35557
219.00002,2.69630,51.35557
219.10000,2.69710,51.30188
219.20002,2.69800,51.30188
219.30000,2.69880,51.27503
219.40002,2.69960,51.27503
219.50002,2.70050,51.24819
219.60000,2.70130,51.22134
219.70002,2.70210,51.22134
219.80000,2.70300,51.19449
219.90002,2.70380,51.16765
220.00002,2.70460,51.14080
220.10000,2.70550,51.14080
220.20002,2.70630,51.14080
220.30000,2.70710,51.11396
220.40002,2.70800,51.11396
220.50002,2.70880,51.11396
220.60000,2.70960,51.11396
220.70002,2.71050,51.06027
220.80000,2.71130,51.06027
220.90002,2.71210,51.03342
221.00002,2.71300,51.00658
221.10000,2.71380,50.95288
221.20002,2.71460,50.92604
221.30000,2.71550,50.89919
221.40002,2.71630,50.89919
221.50002,2.71710,50.84550
221.60000,2.71800,50.81866
221.70002,2.71880,50.81866
221.80000,2.71960,50.79181
221.90002,2.72050,50.76497
222.00002,2.72130,50.73812
222.10000,2.72210,50.71127
222.20002,2.72300,50.68443
222.30000,2.72380,50.63074
222.40002,2.72460,50.60389
222.50002,2.72550,50.30859
222.60000,2.72630,50.17436
222.70002,2.72710,50.09383
222.80000,2.72800,50.04014
222.90002,2.72880,49.95960
223.00002,2.72960,49.87906
223.10000,2.73050,49.79853
223.20002,2.73130,49.71799
223.30000,2.73210,49.63745
223.40002,2.73300,49.55692
223.50002,2.73380,49.50322
223.60000,2.73460,49.36900
223.70002,2.73550,49.26161
223.80000,2.73630,49.12739
223.90002,2.73710,49.02000
224.00002,2.73800,48.91262
224.10000,2.73880,48.80524
224.20002,2.73960,48.69786
224.30000,2.74050,48.56363
224.40002,2.74130,48.45625
224.50002,2.74210,48.37571
224.60000,2.74300,48.29517
224.70002,2.74380,48.16095
224.80000,2.74460,48.08041
224.90002,2.74550,47.97303
225.00002,2.74630,47.89249
225.10000,2.74710,47.78511
225.20002,2.74800,47.67773
225.30002,2.74880,47.57034
225.40002,2.74960,47.46296
225.50002,2.75050,47.30189
225.60000,2.75130,47.14081
225.70002,2.75210,46.97974
225.80002,2.75300,46.49652
225.90002,2.75380,46.09384
226.00002,2.75460,45.87907
226.10000,2.75550,45.71800
226.20002,2.75630,45.55693
226.30002,2.75710,45.36901
226.40002,2.75800,45.18109
226.50002,2.75880,45.04686
226.60000,2.75960,44.88579
226.70002,2.76050,44.72471
226.80002,2.76130,44.61733
226.90002,2.76210,44.48310
227.00002,2.76300,44.34887
227.10000,2.76380,44.21465
227.20002,2.76460,44.10726
227.25002,2.76510,44.02673
