Time,Extension,Load
(sec),(mm),(N)
0.00000,2.53210,-7.73153
0.10000,2.53330,-7.74495
0.20000,2.53490,-7.75837
0.30000,2.53660,-7.75837
0.40000,2.53830,-7.69126
0.50000,2.53990,-7.57046
0.60000,2.54160,-7.44965
0.70000,2.54330,-7.30200
0.80000,2.54490,-7.11408
0.90000,2.54660,-6.96643
1.00000,2.54830,-6.76509
1.10000,2.54990,-6.56375
1.20000,2.55160,-6.34898
1.30000,2.55330,-6.12079
1.40000,2.55490,-5.86576
1.50000,2.55660,-5.58388
1.60000,2.55830,-5.30200
1.70000,2.55990,-4.99328
1.80000,2.56160,-4.69798
1.90000,2.56330,-4.36241
2.00000,2.56490,-4.02684
2.10000,2.56660,-3.71812
2.20000,2.56830,-3.39597
2.30000,2.56990,-3.08725
2.40000,2.57160,-2.72483
2.50000,2.57330,-2.41611
2.60000,2.57490,-2.04027
2.70000,2.57660,-1.66443
2.80000,2.57830,-1.31544
2.90000,2.57990,-0.96645
3.00000,2.58160,-0.63088
3.10000,2.58330,-0.29531
3.20000,2.58490,0.08053
3.30000,2.58660,0.40268
3.40000,2.58830,0.77852
3.50000,2.58990,1.15435
3.60000,2.59160,1.51677
3.70000,2.59330,1.87918
3.80000,2.59490,2.22818
3.90000,2.59660,2.56375
4.00000,2.59830,2.92616
4.10000,2.59990,3.27515
4.20000,2.60160,3.63757
4.30000,2.60330,3.99998
4.40000,2.60490,4.37582
4.50000,2.60660,4.73824
4.60000,2.60830,5.06038
4.70000,2.60990,5.38253
4.80000,2.61160,5.74495
4.90000,2.61330,6.06709
5.00000,2.61490,6.44293
5.10000,2.61660,6.81877
5.20000,2.61830,7.18118
5.30000,2.61990,7.55702
5.40000,2.62160,7.87917
5.50000,2.62330,8.21474
5.60000,2.62490,8.59058
5.70000,2.62660,8.93957
5.80000,2.62830,9.27514
5.90000,2.62990,9.66440
6.00000,2.63160,10.02681
6.10000,2.63330,10.37581
6.20000,2.63490,10.69795
6.30000,2.63660,11.03352
6.40000,2.63830,11.38252
6.50000,2.63990,11.73151
6.60000,2.64160,12.08050
6.70000,2.64330,12.45634
6.80000,2.64490,12.80533
6.90000,2.64660,13.16775
7.00000,2.64830,13.48989
7.10000,2.64990,13.83889
7.20000,2.65160,14.18788
7.30000,2.65330,14.52345
7.40000,2.65490,14.85902
7.50000,2.65660,15.23486
7.60000,2.65830,15.59727
7.70000,2.65990,15.94626
7.80000,2.66160,16.26841
7.90000,2.66330,16.61740
8.00000,2.66490,16.95297
8.10000,2.66660,17.30196
8.20000,2.66830,17.63753
8.30000,2.66990,18.01337
8.40000,2.67160,18.36236
8.50000,2.67330,18.68451
8.60000,2.67490,19.00666
8.70000,2.67660,19.35565
8.80000,2.67830,19.70464
8.90000,2.67990,20.02679
9.00000,2.68160,20.36236
9.10000,2.68330,20.73820
9.20000,2.68490,21.08719
9.30000,2.68660,21.44960
9.40000,2.68830,21.77175
9.50000,2.68990,22.13417
9.60000,2.69160,22.48316
9.70000,2.69320,22.83215
9.80000,2.69490,23.18114
9.90000,2.69660,23.55698
10.00000,2.69820,23.89255
10.10000,2.69990,24.24154
10.20000,2.70160,24.56369
10.30000,2.70320,24.92611
10.40000,2.70490,25.24825
10.50000,2.70660,25.59724
10.60000,2.70820,25.95966
10.70000,2.70990,26.33550
10.80000,2.71160,26.67107
10.90000,2.71320,26.99321
11.00000,2.71490,27.28852
11.10000,2.71660,27.63751
11.20000,2.71820,27.97308
11.30000,2.71990,28.32207
11.40000,2.72160,28.65764
11.50000,2.72320,29.00663
11.60000,2.72490,29.34220
11.70000,2.72660,29.70462
11.80000,2.72820,30.02676
11.90000,2.72990,30.37576
12.00000,2.73160,30.69790
12.10000,2.73320,31.03347
12.20000,2.73490,31.39589
12.30000,2.73660,31.78515
12.40000,2.73820,32.12072
12.50000,2.73990,32.44286
12.60000,2.74160,32.75159
12.70000,2.74320,33.08716
12.80000,2.74490,33.40931
12.90000,2.74660,33.74488
13.00000,2.74820,34.09387
13.10000,2.74990,34.44286
13.20000,2.75160,34.75158
13.30000,2.75320,35.08715
13.40000,2.75490,35.40930
13.50000,2.75660,35.75829
13.60000,2.75820,36.06702
13.70000,2.75990,36.41601
13.80000,2.76160,36.77842
13.90000,2.76320,37.15426
14.00000,2.76490,37.48983
14.10000,2.76660,37.82540
14.20000,2.76820,38.13413
14.30000,2.76990,38.46970
14.40000,2.77160,38.77842
14.50000,2.77320,39.12741
14.60000,2.77490,39.46298
14.70000,2.77660,39.81197
14.80000,2.77820,40.14754
14.90000,2.77990,40.48311
15.00000,2.78160,40.79184
15.10000,2.78320,41.12741
15.20000,2.78490,41.44955
15.30000,2.78660,41.78512
15.40000,2.78820,42.14754
15.50000,2.78990,42.49653
15.60000,2.79160,42.80525
15.70000,2.79320,43.11398
15.80000,2.79490,43.40928
15.90000,2.79660,43.75827
16.00000,2.79820,44.08042
16.10000,2.79990,44.42941
16.20000,2.80160,44.79183
16.30000,2.80320,45.12740
16.40000,2.80490,45.46297
16.50000,2.80660,45.77169
16.60000,2.80820,46.09384
16.70000,2.80990,46.41598
16.80000,2.81160,46.72471
16.90000,2.81320,47.06028
17.00000,2.81490,47.39585
17.10000,2.81660,47.75826
17.20000,2.81820,48.08041
17.30000,2.81990,48.40256
17.40000,2.82160,48.72470
17.50000,2.82320,49.07369
17.60000,2.82490,49.39584
17.70000,2.82660,49.71799
17.80000,2.82820,50.06698
17.90000,2.82990,50.41597
18.00000,2.83160,50.71127
18.10000,2.83320,51.03342
18.20000,2.83490,51.38241
18.30000,2.83660,51.67772
18.40000,2.83820,51.99986
18.50000,2.83990,52.32201
18.60000,2.84160,52.67100
18.70000,2.84320,52.99315
18.80000,2.84490,53.28845
18.90000,2.84660,53.58375
19.00000,2.84820,53.93274
19.10000,2.84990,54.20120
19.20000,2.85160,54.55019
19.30000,2.85320,54.87234
19.40000,2.85490,55.22133
19.50000,2.85660,55.54348
19.60000,2.85820,55.83878
19.70000,2.85990,56.13408
19.80000,2.86160,56.42938
19.90000,2.86320,56.72468
20.00000,2.86490,57.04683
20.10000,2.86660,57.39582
20.20000,2.86820,57.74481
20.30000,2.86990,58.06696
20.40000,2.87160,58.38911
20.50000,2.87320,58.68441
20.60000,2.87490,59.00656
20.70000,2.87660,59.30186
20.80000,2.87820,59.62400
20.90000,2.87990,59.94615
21.00000,2.88160,60.26830
21.10000,2.88320,60.59044
21.20000,2.88490,60.88575
21.30000,2.88660,61.18105
21.40000,2.88820,61.50319
21.50000,2.88990,61.77165
21.60000,2.89160,62.09380
21.70000,2.89320,62.38910
21.80000,2.89490,62.73809
21.90000,2.89660,63.06024
22.00000,2.89820,63.38238
22.10000,2.89990,63.67768
22.20000,2.90160,63.99983
22.30000,2.90320,64.29513
22.40000,2.90490,64.64412
22.50000,2.90660,64.93943
22.60000,2.90820,65.28842
22.70000,2.90990,65.58372
22.80000,2.91160,65.90587
22.90000,2.91320,66.17432
23.00000,2.91490,66.49647
23.10000,2.91660,66.79177
23.20000,2.91820,67.08707
23.30000,2.91990,67.40922
23.40000,2.92160,67.73137
23.50000,2.92320,68.02667
23.60000,2.92490,68.32197
23.70000,2.92660,68.59042
23.80000,2.92820,68.88572
23.90000,2.92990,69.18103
24.00000,2.93160,69.47633
24.10000,2.93320,69.79847
24.20000,2.93490,70.12062
24.30000,2.93660,70.41592
24.40000,2.93820,70.71122
24.50000,2.93990,70.97968
24.60000,2.94160,71.27498
24.70000,2.94320,71.57028
24.80000,2.94490,71.83874
24.90000,2.94660,72.16088
25.00000,2.94820,72.48303
25.10000,2.94990,72.77833
25.20000,2.95160,73.04679
25.30000,2.95320,73.31524
25.40000,2.95490,73.63739
25.50000,2.95660,73.93269
25.60000,2.95820,74.20115
25.70000,2.95990,74.49645
25.80000,2.96160,74.79175
25.90000,2.96320,75.08705
26.00000,2.96490,75.38235
26.10000,2.96660,75.65081
26.20000,2.96820,75.97295
26.30000,2.96990,76.24141
26.40000,2.97160,76.53671
26.50000,2.97320,76.85886
26.60000,2.97490,77.18101
26.70000,2.97660,77.44946
26.80000,2.97820,77.71792
26.90000,2.97990,78.01322
27.00000,2.98160,78.30852
27.10000,2.98320,78.57698
27.20000,2.98490,78.87228
27.30000,2.98660,79.16758
27.40000,2.98820,79.46288
27.50000,2.98990,79.73133
27.60000,2.99160,79.99979
27.70000,2.99320,80.26825
27.80000,2.99490,80.56355
27.90000,2.99660,80.83200
28.00000,2.99820,81.12730
28.10000,2.99990,81.42261
28.20000,3.00160,81.69106
28.30000,3.00320,81.95952
28.40000,3.00490,82.22797
28.50000,3.00660,82.52327
28.60000,3.00820,82.81857
28.70000,3.00990,83.08703
28.80000,3.01160,83.38233
28.90000,3.01320,83.65079
29.00000,3.01490,83.94609
29.10000,3.01660,84.21454
29.20000,3.01820,84.48300
29.30000,3.01990,84.75146
29.40000,3.02160,85.01991
29.50000,3.02320,85.28837
29.60000,3.02490,85.58367
29.70000,3.02660,85.85212
29.80000,3.02820,86.12058
29.90000,3.02990,86.36219
30.00000,3.03160,86.63065
30.10000,3.03320,86.89910
30.20000,3.03490,87.16756
30.30000,3.03660,87.43601
30.40000,3.03820,87.73131
30.50000,3.03990,88.02662
30.60000,3.04160,88.32192
30.70000,3.04320,88.59037
30.80000,3.04490,88.85883
30.90000,3.04660,89.10044
31.00000,3.04820,89.36889
31.10000,3.04990,89.61050
31.20000,3.05160,89.87896
31.30000,3.05320,90.17426
31.40000,3.05490,90.44272
31.50000,3.05660,90.71117
31.60000,3.05820,90.95278
31.70000,3.05990,91.19439
31.80000,3.06160,91.46285
31.90000,3.06320,91.70446
32.00000,3.06490,91.99976
32.10000,3.06660,92.26822
32.20000,3.06820,92.53667
32.30000,3.06990,92.77828
32.40000,3.07160,93.01989
32.50000,3.07320,93.26150
32.60000,3.07490,93.50311
32.70000,3.07660,93.77157
32.80000,3.07820,94.01318
32.90000,3.07990,94.33532
33.00000,3.08160,94.57693
33.10000,3.08320,94.81854
33.20000,3.08490,95.03331
33.30000,3.08660,95.36888
33.40000,3.08820,95.57022
33.50000,3.08990,95.83868
33.60000,3.09160,96.04002
33.70000,3.09320,96.30847
33.80000,3.09490,96.57693
33.90000,3.09660,96.84538
34.00000,3.09820,97.04673
34.10000,3.09990,97.31518
34.20000,3.10160,97.51652
34.30000,3.10320,97.78498
34.40000,3.10490,98.05344
34.50000,3.10660,98.32189
34.60000,3.10820,98.52323
34.70000,3.10990,98.79169
34.80000,3.11160,98.99303
34.90000,3.11320,99.26149
35.00000,3.11490,99.46283
35.10000,3.11660,99.73128
35.20000,3.11820,99.93263
35.30000,3.11990,100.20108
35.40000,3.12160,100.46954
35.50000,3.12320,100.67088
35.60000,3.12490,100.87222
35.70000,3.12660,101.07356
35.80000,3.12820,101.27490
35.90000,3.12990,101.54336
36.00000,3.13160,101.81181
36.10000,3.13320,102.08027
36.20000,3.13490,102.21450
36.30000,3.13660,102.48295
36.40000,3.13820,102.68430
36.50000,3.13990,102.88564
36.60000,3.14160,103.08698
36.70000,3.14320,103.28832
36.80000,3.14490,103.55678
36.90000,3.14660,103.75812
37.00000,3.14820,104.02657
37.10000,3.14990,104.22792
37.20000,3.15160,104.42926
37.30000,3.15320,104.63060
37.40000,3.15490,104.83194
37.50000,3.15660,105.03328
37.60000,3.15820,105.23462
37.70000,3.15990,105.50308
37.80000,3.16160,105.70442
37.90000,3.16320,105.90576
38.00000,3.16490,106.03999
38.10000,3.16660,106.24133
38.20000,3.16820,106.44268
38.30000,3.16990,106.64402
38.40000,3.17160,106.84536
38.50000,3.17320,107.11381
38.60000,3.17490,107.31516
38.70000,3.17660,107.51650
38.80000,3.17820,107.65073
38.90000,3.17990,107.85207
39.00000,3.18160,108.05341
39.10000,3.18320,108.25475
39.20000,3.18490,108.52321
39.30000,3.18660,108.72455
39.40000,3.18820,108.85878
39.50000,3.18990,109.06012
39.60000,3.19160,109.26146
39.70000,3.19320,109.46280
39.80000,3.19490,109.59703
39.90000,3.19660,109.79837
40.00000,3.19820,109.93260
40.10000,3.19990,110.13394
40.20000,3.20160,110.33528
40.30000,3.20320,110.46951
40.40000,3.20490,110.67085
40.50000,3.20660,110.80508
40.60000,3.20820,110.93931
40.70000,3.20990,111.14065
40.80000,3.21160,111.34199
40.90000,3.21320,111.47622
41.00000,3.21490,111.61045
41.10000,3.21650,111.81179
41.20000,3.21820,111.94602
41.30000,3.21990,112.08024
41.40000,3.22150,112.21447
41.50000,3.22320,112.41581
41.60000,3.22490,112.55004
41.70000,3.22650,112.75138
41.80000,3.22820,112.81850
41.90000,3.22990,113.01984
42.00000,3.23150,113.08695
42.10000,3.23320,113.22118
42.20000,3.23490,113.35541
42.30000,3.23650,113.48964
42.40000,3.23820,113.62387
42.50000,3.23990,113.75809
42.60000,3.24150,113.89232
42.70000,3.24320,114.02655
42.80000,3.24490,114.16078
42.90000,3.24650,114.22789
43.00000,3.24820,114.36212
43.10000,3.24990,114.49635
43.20000,3.25150,114.63057
43.30000,3.25320,114.69769
43.40000,3.25490,114.76480
43.50000,3.25650,114.89903
43.60000,3.25820,114.96614
43.70000,3.25990,115.03326
43.80000,3.26150,115.16749
43.90000,3.26320,115.23460
44.00000,3.26490,115.30171
44.10000,3.26650,115.36883
44.20000,3.26820,115.43594
44.30000,3.26990,115.50306
44.40000,3.27150,115.57017
44.50000,3.27320,115.57017
44.60000,3.27490,115.63728
44.70000,3.27650,115.70440
44.80000,3.27820,115.77151
44.90000,3.27990,115.77151
45.00000,3.28150,115.83862
45.10000,3.28320,115.83862
45.20000,3.28490,115.83862
45.30000,3.28650,115.90574
45.40000,3.28820,115.90574
45.50000,3.28990,115.90574
45.60000,3.29150,115.90574
45.70000,3.29320,115.90574
45.80000,3.29490,115.97285
45.90000,3.29650,115.90574
46.00000,3.29820,115.90574
46.10000,3.29990,115.90574
46.20000,3.30150,115.90574
46.30000,3.30320,115.83862
46.40000,3.30490,115.83862
46.50000,3.30650,115.83862
46.60000,3.30820,115.77151
46.70000,3.30990,115.70440
46.80000,3.31150,115.63728
46.90000,3.31320,115.63728
47.00000,3.31490,115.57017
47.10000,3.31650,115.57017
47.20000,3.31820,115.50306
47.30000,3.31990,115.50306
47.40000,3.32150,115.43594
47.50000,3.32320,115.30171
47.60000,3.32490,115.23460
47.70000,3.32650,115.16749
47.80000,3.32820,115.10037
47.90000,3.32990,115.03326
48.00000,3.33150,114.96614
48.10000,3.33320,114.89903
48.20000,3.33490,114.76480
48.30000,3.33650,114.69769
48.40000,3.33820,114.63057
48.50000,3.33990,114.49635
48.60000,3.34150,114.42923
48.70000,3.34320,114.29500
48.80000,3.34490,114.22789
48.90000,3.34650,114.09366
49.00000,3.34820,113.95943
49.10000,3.34990,113.75809
49.20000,3.35150,113.62387
49.30000,3.35320,113.42252
49.40000,3.35490,113.28830
49.50000,3.35650,113.08695
49.60000,3.35820,113.01984
49.70000,3.35990,112.81850
49.80000,3.36150,112.68427
49.90000,3.36320,112.48293
50.00000,3.36490,112.34870
50.10000,3.36650,112.14736
50.20000,3.36820,111.94602
50.30000,3.36990,111.81179
50.40000,3.37150,111.67756
50.50000,3.37320,111.47622
50.60000,3.37490,111.34199
50.70000,3.37650,111.14065
50.80000,3.37820,111.00642
50.90000,3.37990,110.80508
51.00000,3.38150,110.60374
51.10000,3.38320,110.46951
51.20000,3.38490,110.33528
51.30000,3.38650,110.13394
51.40000,3.38820,109.86549
51.50000,3.38990,108.59032
51.60000,3.39150,-1.94631
